====*****=========
====*   *=========
====*x  *=========
==***  x**========
==*  x x *==******
*** * ** *==*P   *
*   * ** ****  ..*
* x           x..*
***** *** * *  ..*
====*     ********
====*******=======